Edward Hillenaar Quarto Website - Palmerpenquins tidymodels
…
# Create an empty list to store bootstrap samples
penguin_boot <- vector("list", num_replicates)

# Perform bootstrap resampling
for (i in 1:num_replicates) {
  # Generate random indices with replacement
  indices <- sample(nrow(penguin_train), replace = TRUE)
  # Extract bootstrap sample using the random indices
  penguin_boot[[i]] <- penguin_train[indices, ]
}

# View the first bootstrap sample
penguin_boot[[1]]

# A tibble: 249 × 6
   species   bill_length_mm bill_depth_mm flipper_length_mm body_mass_g sex   
   <fct>              <dbl>         <dbl>             <int>       <int> <fct> 
 1 Adelie              38.3          19.2               189        3950 male  
 2 Gentoo              48.6          16                 230        5800 male  
 3 Adelie              41.5          18.5               201        4000 male  
 4 Adelie              37            16.9               185        3000 female
 5 Gentoo              49.6          16                 225        5700 male  
 6 Adelie              37.7          19.8               198        3500 male  
 7 Adelie              32.1          15.5               188        3050 female
 8 Chinstrap           42.5          17.3               187        3350 female
 9 Adelie              38.8          17.6               191        3275 female
10 Chinstrap           51.3          18.2               197        3750 male  
# ℹ 239 more rows
…
